{"page":1,"pages":3349,"perpage":100,"total":"334869","photo":[{"id":"47994378667","owner":"163431184@N08","secret":"f882c0423e","server":"65535","farm":66,"title":"Test Graphics 2","ispublic":1,"isfriend":0,"isfamily":0},{"id":"47994378617","owner":"163431184@N08","secret":"8b296ac380","server":"65535","farm":66,"title":"Test Graphics","ispublic":1,"isfriend":0,"isfamily":0},{"id":"47994336863","owner":"163431184@N08","secret":"fe2b9b211b","server":"65535","farm":66,"title":"Bubbleball Quote Test","ispublic":1,"isfriend":0,"isfamily":0},{"id":"47994231006","owner":"169964394@N05","secret":"4d6ce72f02","server":"65535","farm":66,"title":"Test","ispublic":1,"isfriend":0,"isfamily":0},{"id":"47994230571","owner":"169964394@N05","secret":"83ddfc644a","server":"65535","farm":66,"title":"Test","ispublic":1,"isfriend":0,"isfamily":0},{"id":"47994188672","owner":"169964394@N05","secret":"41f4db918b","server":"65535","farm":66,"title":"Test","ispublic":1,"isfriend":0,"isfamily":0},{"id":"47994188642","owner":"169964394@N05","secret":"26f6fda667","server":"65535","farm":66,"title":"Test","ispublic":1,"isfriend":0,"isfamily":0},{"id":"47994188112","owner":"169964394@N05","secret":"656de63cfc","server":"65535","farm":66,"title":"Test","ispublic":1,"isfriend":0,"isfamily":0},{"id":"47994228781","owner":"169964394@N05","secret":"b44ed50fd3","server":"65535","farm":66,"title":"Test","ispublic":1,"isfriend":0,"isfamily":0},{"id":"47994183593","owner":"169964394@N05","secret":"c1ec46b4b6","server":"65535","farm":66,"title":"Test","ispublic":1,"isfriend":0,"isfamily":0},{"id":"47994183168","owner":"169964394@N05","secret":"4a6b4f597d","server":"65535","farm":66,"title":"Test","ispublic":1,"isfriend":0,"isfamily":0},{"id":"47994227961","owner":"169964394@N05","secret":"f25a2b1595","server":"65535","farm":66,"title":"Test","ispublic":1,"isfriend":0,"isfamily":0},{"id":"47994186552","owner":"169964394@N05","secret":"de6cef79ae","server":"65535","farm":66,"title":"Test","ispublic":1,"isfriend":0,"isfamily":0},{"id":"47994184877","owner":"169964394@N05","secret":"fe288bb24c","server":"65535","farm":66,"title":"Test","ispublic":1,"isfriend":0,"isfamily":0},{"id":"47994180988","owner":"169964394@N05","secret":"5b2a3ff3bc","server":"65535","farm":66,"title":"Test","ispublic":1,"isfriend":0,"isfamily":0},{"id":"47994180728","owner":"169964394@N05","secret":"87262a4948","server":"65535","farm":66,"title":"Test","ispublic":1,"isfriend":0,"isfamily":0},{"id":"47994225121","owner":"169964394@N05","secret":"ebd38df31b","server":"65535","farm":66,"title":"Test","ispublic":1,"isfriend":0,"isfamily":0},{"id":"47994183487","owner":"169964394@N05","secret":"617f06f894","server":"65535","farm":66,"title":"Test","ispublic":1,"isfriend":0,"isfamily":0},{"id":"47994183292","owner":"169964394@N05","secret":"eb33ff98c3","server":"65535","farm":66,"title":"Test","ispublic":1,"isfriend":0,"isfamily":0},{"id":"47994224321","owner":"169964394@N05","secret":"742d859e81","server":"65535","farm":66,"title":"Test","ispublic":1,"isfriend":0,"isfamily":0},{"id":"47994224266","owner":"169964394@N05","secret":"c69652dc6f","server":"65535","farm":66,"title":"Test","ispublic":1,"isfriend":0,"isfamily":0},{"id":"47994224061","owner":"169964394@N05","secret":"7648945451","server":"65535","farm":66,"title":"Test","ispublic":1,"isfriend":0,"isfamily":0},{"id":"47994182852","owner":"169964394@N05","secret":"4ac3f1820c","server":"65535","farm":66,"title":"Test","ispublic":1,"isfriend":0,"isfamily":0},{"id":"47994180667","owner":"169964394@N05","secret":"b809af25e8","server":"65535","farm":66,"title":"Test","ispublic":1,"isfriend":0,"isfamily":0},{"id":"47994221386","owner":"169964394@N05","secret":"4a0c119aa3","server":"65535","farm":66,"title":"Test","ispublic":1,"isfriend":0,"isfamily":0},{"id":"47994219431","owner":"169964394@N05","secret":"84c53e0967","server":"65535","farm":66,"title":"Test","ispublic":1,"isfriend":0,"isfamily":0},{"id":"47994024372","owner":"36844288@N00","secret":"bc6f09670c","server":"65535","farm":66,"title":"Atkinson - Knight of the Road : advert issued by Atkinson Lorries (1933) Ltd., Walton-le-Dale, Nr. Preston, UK, c1950","ispublic":1,"isfriend":0,"isfamily":0},{"id":"47993969112","owner":"49644731@N06","secret":"bf48226697","server":"65535","farm":66,"title":"OO-JEM   02 06 2019   BRU","ispublic":1,"isfriend":0,"isfamily":0},{"id":"47993819992","owner":"165143457@N06","secret":"d5977d2488","server":"65535","farm":66,"title":"Boardroom","ispublic":1,"isfriend":0,"isfamily":0},{"id":"47993764508","owner":"69929929@N06","secret":"dfdd1a161f","server":"65535","farm":66,"title":"GENERAL MOTORS","ispublic":1,"isfriend":0,"isfamily":0},{"id":"47993766272","owner":"69929929@N06","secret":"1d7ba4a319","server":"65535","farm":66,"title":"GENERAL MOTORS","ispublic":1,"isfriend":0,"isfamily":0},{"id":"47993608342","owner":"23068268@N08","secret":"e6518b56ce","server":"0","farm":0,"title":"Lackford Lakes Test shots","ispublic":1,"isfriend":0,"isfamily":0},{"id":"47993348442","owner":"22423239@N02","secret":"019852a8c6","server":"65535","farm":66,"title":"Lens Testing: The Eye of Spock","ispublic":1,"isfriend":0,"isfamily":0},{"id":"47993329337","owner":"22423239@N02","secret":"655b832ca3","server":"65535","farm":66,"title":"Lens Testing: The Enterprise","ispublic":1,"isfriend":0,"isfamily":0},{"id":"47993082213","owner":"51662958@N04","secret":"88562a1a26","server":"65535","farm":66,"title":"Kaminzimmer, just a test render to see if I can replicate the mood from an original image. It turns out I can.","ispublic":1,"isfriend":0,"isfamily":0},{"id":"47992981481","owner":"163095052@N07","secret":"17beacee0d","server":"65535","farm":66,"title":"STAINLESS STEEL FLEXIBLE HOSE PIPE","ispublic":1,"isfriend":0,"isfamily":0},{"id":"47992746468","owner":"169703514@N07","secret":"b13908e315","server":"65535","farm":66,"title":"This Dad Is Going To Be A Daddy Again","ispublic":1,"isfriend":0,"isfamily":0},{"id":"47992692057","owner":"66737297@N06","secret":"3058be0701","server":"65535","farm":66,"title":"814113","ispublic":1,"isfriend":0,"isfamily":0},{"id":"47992689263","owner":"66737297@N06","secret":"155b7c0a31","server":"65535","farm":66,"title":"815113","ispublic":1,"isfriend":0,"isfamily":0},{"id":"47992726967","owner":"66737297@N06","secret":"79753aff49","server":"65535","farm":66,"title":"816113","ispublic":1,"isfriend":0,"isfamily":0},{"id":"47992770226","owner":"66737297@N06","secret":"d2424b1f68","server":"65535","farm":66,"title":"817113","ispublic":1,"isfriend":0,"isfamily":0},{"id":"47992719818","owner":"66737297@N06","secret":"df6bf60112","server":"65535","farm":66,"title":"818113","ispublic":1,"isfriend":0,"isfamily":0},{"id":"47992761706","owner":"66737297@N06","secret":"501095686a","server":"65535","farm":66,"title":"819113","ispublic":1,"isfriend":0,"isfamily":0},{"id":"47992708292","owner":"66737297@N06","secret":"32e57a078a","server":"65535","farm":66,"title":"811113","ispublic":1,"isfriend":0,"isfamily":0},{"id":"47992705368","owner":"66737297@N06","secret":"7fd6525075","server":"65535","farm":66,"title":"812113","ispublic":1,"isfriend":0,"isfamily":0},{"id":"47992744281","owner":"66737297@N06","secret":"23851ef6a5","server":"65535","farm":66,"title":"813113","ispublic":1,"isfriend":0,"isfamily":0},{"id":"47992695457","owner":"28825728@N08","secret":"40f0bf2e0b","server":"65535","farm":66,"title":"Colas Railfreight Class 37 no 37254 leads 37219 as they approach Mansfield Woodhouse on 03-06-2019 with an RTC to Leeds Balm Road Test Train","ispublic":1,"isfriend":0,"isfamily":0},{"id":"47992696273","owner":"28825728@N08","secret":"43562c1da4","server":"65535","farm":66,"title":"Colas Railfreight Class 37 no 37254 leads 37219 as they approach Mansfield Woodhouse on 03-06-2019 with an RTC to Leeds Balm Road Test Train","ispublic":1,"isfriend":0,"isfamily":0},{"id":"47992695413","owner":"28825728@N08","secret":"2c396879c4","server":"65535","farm":66,"title":"Colas Railfreight Class 37 no 37219 brings up the rear of the RTC to Leeds Balm Road Test train at Mansfield Woodhouse on 03-06-2019","ispublic":1,"isfriend":0,"isfamily":0},{"id":"47992685417","owner":"84938363@N00","secret":"6373da6915","server":"65535","farm":66,"title":"Sidecar engine testing","ispublic":1,"isfriend":0,"isfamily":0},{"id":"47992697461","owner":"181729106@N08","secret":"9cb7cf97df","server":"65535","farm":66,"title":"Competent Adobe AD0-E102 Dumps – 100% Download Free PDF for AD0-E102 Exam 2019","ispublic":1,"isfriend":0,"isfamily":0},{"id":"47992691121","owner":"181729106@N08","secret":"ce09eae6af","server":"65535","farm":66,"title":"Oracle 1Z0-632 Dumps for 100% valid Success in 1Z0-632 Exam 2019","ispublic":1,"isfriend":0,"isfamily":0},{"id":"47992641253","owner":"181729106@N08","secret":"a82551c9b7","server":"65535","farm":66,"title":"Superb Oracle 1Z0-958 Dumps – Get 100% free PDF for 1Z0-958 Exam 2019","ispublic":1,"isfriend":0,"isfamily":0},{"id":"47992635847","owner":"181729106@N08","secret":"b8057918ec","server":"65535","farm":66,"title":"Download free Oracle 1Z0-345 dumps demo Offer to pass 1Z0-345 Exam 2019","ispublic":1,"isfriend":0,"isfamily":0},{"id":"47992466138","owner":"148030002@N03","secret":"58e6ef4842","server":"65535","farm":66,"title":"Plumbers In Houston Would Be Glad To Perform Their Job","ispublic":1,"isfriend":0,"isfamily":0},{"id":"47992444662","owner":"132808511@N05","secret":"1520a92f31","server":"65535","farm":66,"title":"A6-EDM Airbus A380-800.","ispublic":1,"isfriend":0,"isfamily":0},{"id":"47992420111","owner":"169703514@N07","secret":"2453110561","server":"65535","farm":66,"title":"My Favorite People Call Me Papi Father Day","ispublic":1,"isfriend":0,"isfamily":0},{"id":"47992362782","owner":"169703514@N07","secret":"b15876fb2e","server":"65535","farm":66,"title":"My Favorite Nurse Calls Me Dad Father's Day","ispublic":1,"isfriend":0,"isfamily":0},{"id":"47992289558","owner":"62438406@N00","secret":"1317fbdc90","server":"0","farm":0,"title":"Elton res short time lapse testing new settings","ispublic":1,"isfriend":0,"isfamily":0},{"id":"47992228017","owner":"142993271@N08","secret":"ece1bbcb7c","server":"0","farm":0,"title":"OneTouch Verio Flex meter: Testing your blood glucose","ispublic":1,"isfriend":0,"isfamily":0},{"id":"47992255458","owner":"171457408@N08","secret":"dce549a021","server":"65535","farm":66,"title":"30-04 say2","ispublic":1,"isfriend":0,"isfamily":0},{"id":"47992275316","owner":"169703514@N07","secret":"50b3a6f052","server":"65535","farm":66,"title":"I might not say it out loud but my daughter is my favorite child","ispublic":1,"isfriend":0,"isfamily":0},{"id":"47992255881","owner":"26541297@N06","secret":"cca6530681","server":"65535","farm":66,"title":"\"Repaired\" nozzle under test using Makerbot Replicator 5th Generation.","ispublic":1,"isfriend":0,"isfamily":0},{"id":"47992193226","owner":"166462613@N04","secret":"ca35c5bd7e","server":"65535","farm":66,"title":"currentaffairsias in delhi","ispublic":1,"isfriend":0,"isfamily":0},{"id":"47991992366","owner":"171480527@N06","secret":"0011a7f1cc","server":"65535","farm":66,"title":"May 8th: Toothbrush","ispublic":1,"isfriend":0,"isfamily":0},{"id":"47991927016","owner":"132808511@N05","secret":"21d7f646b9","server":"65535","farm":66,"title":"Sun gets in your eyes","ispublic":1,"isfriend":0,"isfamily":0},{"id":"47991809796","owner":"181656729@N02","secret":"20e05a811c","server":"65535","farm":66,"title":"Smashing Adobe AD0-E102 Dumps – Free download PDF for AD0-E102 Exam 2019","ispublic":1,"isfriend":0,"isfamily":0},{"id":"47991806101","owner":"181656729@N02","secret":"cb68573413","server":"65535","farm":66,"title":"Great Oracle 1Z0-632 Dumps – Free download PDF for 1Z0-632 Exam 2019","ispublic":1,"isfriend":0,"isfamily":0},{"id":"47991757163","owner":"181656729@N02","secret":"a88601f3cf","server":"65535","farm":66,"title":"Splendid Oracle 1Z0-958 Dumps – 100% free PDF for 1Z0-958 Exam 2019","ispublic":1,"isfriend":0,"isfamily":0},{"id":"47991799551","owner":"181656729@N02","secret":"d7cd473a17","server":"65535","farm":66,"title":"Worthy Oracle 1Z0-345 Exam with glorious 1Z0-345 Dumps Q&A 2019","ispublic":1,"isfriend":0,"isfamily":0},{"id":"47991723817","owner":"75396205@N06","secret":"953c8eec55","server":"65535","farm":66,"title":"Re Test: Carl Zeiss Jena DDR Sonnar auto 200mm F1:2,8","ispublic":1,"isfriend":0,"isfamily":0},{"id":"47991705773","owner":"169703514@N07","secret":"ab7c655cb3","server":"65535","farm":66,"title":"Being A Dad Is An Honor Being A Grandpa Is Priceless Father Day","ispublic":1,"isfriend":0,"isfamily":0},{"id":"47991647463","owner":"158672042@N05","secret":"52e46dce44","server":"65535","farm":66,"title":"clat-297","ispublic":1,"isfriend":0,"isfamily":0},{"id":"47991388163","owner":"156452667@N03","secret":"6e8345510c","server":"65535","farm":66,"title":"Best Indoor Activities In Dubai","ispublic":1,"isfriend":0,"isfamily":0},{"id":"47991341893","owner":"162586534@N06","secret":"71784ed7ec","server":"65535","farm":66,"title":"Biene / Bee","ispublic":1,"isfriend":0,"isfamily":0},{"id":"47991218888","owner":"157907032@N04","secret":"01eb213517","server":"65535","farm":66,"title":"1998 - 13thMay","ispublic":1,"isfriend":0,"isfamily":0},{"id":"47991210658","owner":"157907032@N04","secret":"65feb68fed","server":"65535","farm":66,"title":"1998 8thMay Test Run d","ispublic":1,"isfriend":0,"isfamily":0},{"id":"47991208287","owner":"157907032@N04","secret":"351b977656","server":"65535","farm":66,"title":"1998 8thMay Test Run","ispublic":1,"isfriend":0,"isfamily":0},{"id":"47991112867","owner":"41282731@N03","secret":"e4eefc68e9","server":"65535","farm":66,"title":"test #7","ispublic":1,"isfriend":0,"isfamily":0},{"id":"47990873768","owner":"181789611@N02","secret":"73cbff1109","server":"65535","farm":66,"title":"Fire Testing and approvals","ispublic":1,"isfriend":0,"isfamily":0},{"id":"47991106346","owner":"181801826@N04","secret":"f4c053d749","server":"65535","farm":66,"title":"","ispublic":1,"isfriend":0,"isfamily":0},{"id":"47990831333","owner":"22423239@N02","secret":"71665602c1","server":"65535","farm":66,"title":"Lens Testing: Sickbay","ispublic":1,"isfriend":0,"isfamily":0},{"id":"47990831113","owner":"22423239@N02","secret":"41b14f49f2","server":"65535","farm":66,"title":"Lens Testing: Earth Orbit","ispublic":1,"isfriend":0,"isfamily":0},{"id":"47988737488","owner":"181787971@N07","secret":"1ffb26837a","server":"65535","farm":66,"title":"Photo Essay 3","ispublic":1,"isfriend":0,"isfamily":0},{"id":"47990185438","owner":"181789539@N02","secret":"5198a76883","server":"0","farm":0,"title":"hackea un twitter en 2019 gratis","ispublic":1,"isfriend":0,"isfamily":0},{"id":"47989806048","owner":"136737541@N05","secret":"364f25d1c8","server":"65535","farm":66,"title":"Alpha and Bravo Co., 2nd Regiment Advanced Camp, Day Land Navigation","ispublic":1,"isfriend":0,"isfamily":0},{"id":"47989857501","owner":"136737541@N05","secret":"bb55ebc73f","server":"65535","farm":66,"title":"Alpha and Bravo Co., 2nd Regiment Advanced Camp, Day Land Navigation","ispublic":1,"isfriend":0,"isfamily":0},{"id":"47989856311","owner":"136737541@N05","secret":"6fde17f06e","server":"65535","farm":66,"title":"Alpha and Bravo Co., 2nd Regiment Advanced Camp, Day Land Navigation","ispublic":1,"isfriend":0,"isfamily":0},{"id":"47989802388","owner":"136737541@N05","secret":"735a8b2e39","server":"65535","farm":66,"title":"Alpha and Bravo Co., 2nd Regiment Advanced Camp, Day Land Navigation","ispublic":1,"isfriend":0,"isfamily":0},{"id":"47989853651","owner":"136737541@N05","secret":"64b2e9d4e4","server":"65535","farm":66,"title":"Alpha and Bravo Co., 2nd Regiment Advanced Camp, Day Land Navigation","ispublic":1,"isfriend":0,"isfamily":0},{"id":"47989796922","owner":"136737541@N05","secret":"f2b1456d7c","server":"65535","farm":66,"title":"Alpha and Bravo Co., 2nd Regiment Advanced Camp, Day Land Navigation","ispublic":1,"isfriend":0,"isfamily":0},{"id":"47989851441","owner":"136737541@N05","secret":"4229604216","server":"65535","farm":66,"title":"Alpha and Bravo Co., 2nd Regiment Advanced Camp, Day Land Navigation","ispublic":1,"isfriend":0,"isfamily":0},{"id":"47989797103","owner":"136737541@N05","secret":"fab0eabac0","server":"65535","farm":66,"title":"Alpha and Bravo Co., 2nd Regiment Advanced Camp, Day Land Navigation","ispublic":1,"isfriend":0,"isfamily":0},{"id":"47989795793","owner":"136737541@N05","secret":"7a7ae5f861","server":"65535","farm":66,"title":"Alpha and Bravo Co., 2nd Regiment Advanced Camp, Day Land Navigation","ispublic":1,"isfriend":0,"isfamily":0},{"id":"47989847181","owner":"136737541@N05","secret":"f1db226fec","server":"65535","farm":66,"title":"Alpha and Bravo Co., 2nd Regiment Advanced Camp, Day Land Navigation","ispublic":1,"isfriend":0,"isfamily":0},{"id":"47989793398","owner":"136737541@N05","secret":"94fc3cb4d2","server":"65535","farm":66,"title":"Alpha and Bravo Co., 2nd Regiment Advanced Camp, Day Land Navigation","ispublic":1,"isfriend":0,"isfamily":0},{"id":"47989789122","owner":"136737541@N05","secret":"a7d8f5d000","server":"65535","farm":66,"title":"Alpha and Bravo Co., 2nd Regiment Advanced Camp, Day Land Navigation","ispublic":1,"isfriend":0,"isfamily":0},{"id":"47989790288","owner":"136737541@N05","secret":"b56d02205a","server":"65535","farm":66,"title":"Alpha and Bravo Co., 2nd Regiment Advanced Camp, Day Land Navigation","ispublic":1,"isfriend":0,"isfamily":0},{"id":"47989786802","owner":"136737541@N05","secret":"d1b2783a7a","server":"65535","farm":66,"title":"Alpha and Bravo Co., 2nd Regiment Advanced Camp, Day Land Navigation","ispublic":1,"isfriend":0,"isfamily":0},{"id":"47989841146","owner":"136737541@N05","secret":"4492f8810b","server":"65535","farm":66,"title":"Alpha and Bravo Co., 2nd Regiment Advanced Camp, Day Land Navigation","ispublic":1,"isfriend":0,"isfamily":0}]}